…
library(tidyr)

## Warning: package 'tidyr' was built under R version 3.3.2

## 
## Attaching package: 'tidyr'

## The following object is masked from 'package:reshape2':
## 
##     smiths

#using dplyr-tidyr
spread(subset(pf.fc_by_age_gender, select = c('gender', 'age', 'median_friend_count')), gender, median_friend_count)

## Source: local data frame [101 x 3]
## Groups: age [101]
## 
##      age female  male
## *  <int>  <dbl> <dbl>
## 1     13  148.0  55.0
## 2     14  224.0  92.5
## 3     15  276.0 106.5
## 4     16  258.5 136.0
## 5     17  245.5 125.0
## 6     18  243.0 122.0
## 7     19  229.0 130.0
## 8     20  190.0 112.0
## 9     21  158.0 108.0
## 10    22  124.0  97.0
## # ... with 91 more rows
…
